VA7/tb_ControlUnit.vcd
$date
	Mon Nov  6 01:01:12 2023
$end
$version
	Icarus Verilog
$end
$timescale
	1s
$end
$scope module testbench $end
$var wire 32 ! out [31:0] $end
$var parameter 32 " CLK_PERIOD $end
$var reg 1 # clk $end
$var reg 1 $ rst $end
$scope module KGPRISC $end
$var wire 1 # clk $end
$var wire 32 % out [31:0] $end
$var wire 1 & reset $end
$var wire 1 $ rst $end
$var wire 1 ' updatePC $end
$var wire 5 ( shamt [4:0] $end
$var wire 6 ) opcode [5:0] $end
$var wire 32 * ins [31:0] $end
$var wire 32 + imm [31:0] $end
$var wire 6 , funct [5:0] $end
$var wire 5 - destReg [4:0] $end
$var wire 3 . StackOp [2:0] $end
$var wire 5 / Rt [4:0] $end
$var wire 5 0 Rs [4:0] $end
$var wire 1 1 RegW $end
$var wire 1 2 RegDst $end
$var wire 32 3 Rdin [31:0] $end
$var wire 5 4 Rd [4:0] $end
$var wire 32 5 PC [31:0] $end
$var wire 32 6 NPC [31:0] $end
$var wire 1 7 MemtoReg $end
$var wire 1 8 MemW $end
$var wire 32 9 MemSP [31:0] $end
$var wire 1 : MemR $end
$var wire 32 ; MemIn [31:0] $end
$var wire 32 < MemAddr [31:0] $end
$var wire 32 = LMD [31:0] $end
$var wire 3 > BranchOp [2:0] $end
$var wire 32 ? B [31:0] $end
$var wire 32 @ ALUout [31:0] $end
$var wire 32 A ALUin2 [31:0] $end
$var wire 32 B ALUin1 [31:0] $end
$var wire 4 C ALUfunct [3:0] $end
$var wire 1 D ALUSrc $end
$var wire 4 E ALUOp [3:0] $end
$var wire 32 F A [31:0] $end
$scope module ALU $end
$var wire 32 G a [31:0] $end
$var wire 32 H b [31:0] $end
$var wire 1 # clk $end
$var wire 4 I funct [3:0] $end
$var wire 32 J xor_out [31:0] $end
$var wire 32 K sub_out [31:0] $end
$var wire 32 L srl_out [31:0] $end
$var wire 32 M sra_out [31:0] $end
$var wire 32 N sla_out [31:0] $end
$var wire 5 O shamt [4:0] $end
$var wire 32 P or_out [31:0] $end
$var wire 32 Q not_out [31:0] $end
$var wire 32 R and_out [31:0] $end
$var wire 32 S add_out [31:0] $end
$var parameter 32 T ADD $end
$var parameter 32 U AND $end
$var parameter 32 V NOT $end
$var parameter 32 W OR $end
$var parameter 32 X SLA $end
$var parameter 32 Y SRA $end
$var parameter 32 Z SRL $end
$var parameter 32 [ SUB $end
$var parameter 32 \ XOR $end
$var reg 32 ] res [31:0] $end
$scope module add_gate $end
$var wire 32 ^ a [31:0] $end
$var wire 32 _ b [31:0] $end
$var reg 32 ` out [31:0] $end
$upscope $end
$scope module and_gate $end
$var wire 32 a a [31:0] $end
$var wire 32 b b [31:0] $end
$var reg 32 c out [31:0] $end
$upscope $end
$scope module not_gate $end
$var wire 32 d a [31:0] $end
$var reg 32 e out [31:0] $end
$upscope $end
$scope module or_gate $end
$var wire 32 f a [31:0] $end
$var wire 32 g b [31:0] $end
$var reg 32 h out [31:0] $end
$upscope $end
$scope module sla_gate $end
$var wire 32 i a [31:0] $end
$var wire 32 j b [31:0] $end
$var wire 5 k shamt [4:0] $end
$var reg 32 l out [31:0] $end
$upscope $end
$scope module sra_gate $end
$var wire 32 m a [31:0] $end
$var wire 32 n b [31:0] $end
$var wire 5 o shamt [4:0] $end
$var reg 32 p out [31:0] $end
$upscope $end
$scope module srl_gate $end
$var wire 32 q a [31:0] $end
$var wire 32 r b [31:0] $end
$var wire 5 s shamt [4:0] $end
$var reg 32 t out [31:0] $end
$upscope $end
$scope module sub_gate $end
$var wire 32 u a [31:0] $end
$var wire 32 v b [31:0] $end
$var reg 32 w out [31:0] $end
$upscope $end
$scope module xor_gate $end
$var wire 32 x a [31:0] $end
$var wire 32 y b [31:0] $end
$var reg 32 z out [31:0] $end
$upscope $end
$upscope $end
$scope module CPU $end
$var wire 1 # clk $end
$var wire 6 { opcode [5:0] $end
$var parameter 6 | ADDI $end
$var parameter 6 } ANDI $end
$var parameter 6 ~ BMI $end
$var parameter 6 !" BPL $end
$var parameter 6 "" BR $end
$var parameter 6 #" BZ $end
$var parameter 6 $" CALL $end
$var parameter 6 %" HALT $end
$var parameter 6 &" LD $end
$var parameter 6 '" LDSP $end
$var parameter 6 (" MOVE $end
$var parameter 6 )" NOP $end
$var parameter 6 *" NOTI $end
$var parameter 6 +" ORI $end
$var parameter 6 ," POP $end
$var parameter 6 -" PUSH $end
$var parameter 6 ." RET $end
$var parameter 6 /" R_TYPE $end
$var parameter 6 0" SLAI $end
$var parameter 6 1" SRAI $end
$var parameter 6 2" SRLI $end
$var parameter 6 3" ST $end
$var parameter 6 4" STSP $end
$var parameter 6 5" SUBI $end
$var parameter 6 6" XORI $end
$var reg 4 7" ALUOp [3:0] $end
$var reg 1 D ALUSrc $end
$var reg 3 8" BranchOp [2:0] $end
$var reg 3 9" CS [2:0] $end
$var reg 5 :" IS [4:0] $end
$var reg 1 : MemR $end
$var reg 1 8 MemW $end
$var reg 1 7 MemtoReg $end
$var reg 1 2 RegDst $end
$var reg 1 1 RegW $end
$var reg 3 ;" StackOp [2:0] $end
$var reg 1 ' updatePC $end
$upscope $end
$scope module DM $end
$var wire 1 : MemR $end
$var wire 1 8 MemW $end
$var wire 32 <" address [31:0] $end
$var wire 32 =" writeData [31:0] $end
$var wire 6 >" opcode [5:0] $end
$var reg 32 ?" readData [31:0] $end
$var integer 32 @" k [31:0] $end
$upscope $end
$scope module ID $end
$var wire 32 A" ins [31:0] $end
$var reg 5 B" Rd [4:0] $end
$var reg 5 C" Rs [4:0] $end
$var reg 5 D" Rt [4:0] $end
$var reg 6 E" funct [5:0] $end
$var reg 32 F" imm [31:0] $end
$var reg 6 G" opcode [5:0] $end
$var reg 5 H" shamt [4:0] $end
$upscope $end
$scope module IM $end
$var wire 32 I" addr [31:0] $end
$var reg 32 J" ins [31:0] $end
$upscope $end
$scope module PC0 $end
$var wire 1 # clk $end
$var wire 1 $ reset $end
$var wire 1 ' updatePC $end
$var wire 32 K" PCin [31:0] $end
$var reg 32 L" PCout [31:0] $end
$upscope $end
$scope module PCC $end
$var wire 32 M" ALUout [31:0] $end
$var wire 3 N" BranchOp [2:0] $end
$var wire 32 O" LMD [31:0] $end
$var wire 32 P" PCin [31:0] $end
$var wire 3 Q" StackOp [2:0] $end
$var wire 1 # clk $end
$var wire 1 $ rst $end
$var wire 32 R" regval [31:0] $end
$var reg 32 S" PCout [31:0] $end
$upscope $end
$scope module RB $end
$var wire 5 T" Rd [4:0] $end
$var wire 1 1 RegW $end
$var wire 5 U" Rs [4:0] $end
$var wire 5 V" Rt [4:0] $end
$var wire 1 # clk $end
$var wire 32 W" ins [31:0] $end
$var wire 32 X" rData1 [31:0] $end
$var wire 32 Y" rData2 [31:0] $end
$var wire 1 & reset $end
$var wire 32 Z" wrData [31:0] $end
$upscope $end
$scope module SPC $end
$var wire 32 [" SPin [31:0] $end
$var wire 3 \" StackOp [2:0] $end
$var wire 1 # clk $end
$var wire 1 $ rst $end
$var wire 32 ]" tempSP [31:0] $end
$var wire 4 ^" funct [3:0] $end
$var reg 32 _" MemSP [31:0] $end
$var reg 32 `" SPout [31:0] $end
$scope module StackALU $end
$var wire 32 a" a [31:0] $end
$var wire 32 b" b [31:0] $end
$var wire 1 # clk $end
$var wire 4 c" funct [3:0] $end
$var wire 5 d" shamt [4:0] $end
$var wire 32 e" xor_out [31:0] $end
$var wire 32 f" sub_out [31:0] $end
$var wire 32 g" srl_out [31:0] $end
$var wire 32 h" sra_out [31:0] $end
$var wire 32 i" sla_out [31:0] $end
$var wire 32 j" or_out [31:0] $end
$var wire 32 k" not_out [31:0] $end
$var wire 32 l" and_out [31:0] $end
$var wire 32 m" add_out [31:0] $end
$var parameter 32 n" ADD $end
$var parameter 32 o" AND $end
$var parameter 32 p" NOT $end
$var parameter 32 q" OR $end
$var parameter 32 r" SLA $end
$var parameter 32 s" SRA $end
$var parameter 32 t" SRL $end
$var parameter 32 u" SUB $end
$var parameter 32 v" XOR $end
$var reg 32 w" res [31:0] $end
$scope module add_gate $end
$var wire 32 x" a [31:0] $end
$var wire 32 y" b [31:0] $end
$var reg 32 z" out [31:0] $end
$upscope $end
$scope module and_gate $end
$var wire 32 {" a [31:0] $end
$var wire 32 |" b [31:0] $end
$var reg 32 }" out [31:0] $end
$upscope $end
$scope module not_gate $end
$var wire 32 ~" a [31:0] $end
$var reg 32 !# out [31:0] $end
$upscope $end
$scope module or_gate $end
$var wire 32 "# a [31:0] $end
$var wire 32 ## b [31:0] $end
$var reg 32 $# out [31:0] $end
$upscope $end
$scope module sla_gate $end
$var wire 32 %# a [31:0] $end
$var wire 32 &# b [31:0] $end
$var wire 5 '# shamt [4:0] $end
$var reg 32 (# out [31:0] $end
$upscope $end
$scope module sra_gate $end
$var wire 32 )# a [31:0] $end
$var wire 32 *# b [31:0] $end
$var wire 5 +# shamt [4:0] $end
$var reg 32 ,# out [31:0] $end
$upscope $end
$scope module srl_gate $end
$var wire 32 -# a [31:0] $end
$var wire 32 .# b [31:0] $end
$var wire 5 /# shamt [4:0] $end
$var reg 32 0# out [31:0] $end
$upscope $end
$scope module sub_gate $end
$var wire 32 1# a [31:0] $end
$var wire 32 2# b [31:0] $end
$var reg 32 3# out [31:0] $end
$upscope $end
$scope module xor_gate $end
$var wire 32 4# a [31:0] $end
$var wire 32 5# b [31:0] $end
$var reg 32 6# out [31:0] $end
$upscope $end
$upscope $end
$upscope $end
$upscope $end
$upscope $end
$enddefinitions $end
$comment Show the parameter values. $end
$dumpall
b101 v"
b10 u"
b1001 t"
b1000 s"
b111 r"
b100 q"
b110 p"
b11 o"
b1 n"
b101 6"
b10 5"
b10001 4"
b1111 3"
b1000 2"
b1001 1"
b111 0"
b0 /"
b11000 ."
b10011 -"
b10100 ,"
b100 +"
b110 *"
b10111 )"
b10010 ("
b10000 '"
b1110 &"
b10110 %"
b10101 $"
b1101 #"
b1010 ""
b1100 !"
b1011 ~
b11 }
b1 |
b101 \
b10 [
b1001 Z
b1000 Y
b111 X
b100 W
b110 V
b11 U
b1 T
b1010 "
$end
#0
$dumpvars
bx 6#
b1 5#
bz 4#
bx 3#
b1 2#
bz 1#
b0zzzzzzzzzzzzzzzzzzzzzzzzzzzzzzz 0#
b0 /#
b1 .#
bz -#
bz ,#
b0 +#
b1 *#
bz )#
bz0 (#
b0 '#
b1 &#
bz %#
bx1 $#
b1 ##
bz "#
bx !#
bz ~"
b0x }"
b1 |"
bz {"
bx z"
b1 y"
bz x"
bx w"
bx m"
b0x l"
bx k"
bx1 j"
bz0 i"
bz h"
b0zzzzzzzzzzzzzzzzzzzzzzzzzzzzzzz g"
bx f"
bx e"
b0 d"
b1 c"
b1 b"
bz a"
bx `"
bx _"
b1 ^"
bx ]"
b0 \"
bz ["
bx Z"
bx Y"
bx X"
bx W"
bx V"
bx U"
bx T"
bx S"
bx R"
b0 Q"
bx P"
bx O"
b0 N"
bx M"
bx L"
bx K"
bx J"
bx I"
bx H"
bx G"
bx F"
bx E"
bx D"
bx C"
bx B"
bx A"
b1010 @"
bx ?"
bx >"
bx ="
bx <"
b0 ;"
b0 :"
b0 9"
b0 8"
b0 7"
bx {
bx z
bx y
bx x
bx w
bx v
bx u
bx t
bx s
bx r
bx q
bx p
bx o
bx n
bx m
bx l
bx k
bx j
bx i
bx h
bx g
bx f
bx e
bx d
bx c
bx b
bx a
bx `
bx _
bx ^
bx ]
bx S
bx R
bx Q
bx P
bx O
bx N
bx M
bx L
bx K
bx J
bx I
bx H
bx G
bx F
b0 E
0D
bx C
bx B
bx A
bx @
bx ?
b0 >
bx =
bx <
bx ;
0:
bx 9
08
07
bx 6
bx 5
bx 4
bx 3
02
01
bx 0
bx /
b0 .
bx -
bx ,
bx +
bx *
bx )
bx (
0'
z&
bx %
x$
0#
bx !
$end
#5
b1 9"
1#
#10
0#
1$
#15
b0 C
b0 I
b0 J
b0 z
b0 P
b0 h
b0 R
b0 c
b0 K
b0 w
b0 S
b0 `
b11111111111111111111111111111111 Q
b11111111111111111111111111111111 e
b0 L
b0 t
b0 M
b0 p
b0 N
b0 l
b0 A
b0 H
b0 _
b0 b
b0 g
b0 j
b0 n
b0 r
b0 v
b0 y
b0 ;
b0 ="
b1 -
b1 T"
b0 B
b0 G
b0 ^
b0 a
b0 d
b0 f
b0 i
b0 m
b0 q
b0 u
b0 x
b1 +
b1 F"
b0 ,
b0 E"
b0 (
b0 O
b0 k
b0 o
b0 s
b0 H"
b0 4
b0 B"
b0 ?
b0 Y"
b1 /
b1 D"
b1 V"
b0 F
b0 R"
b0 X"
b0 0
b0 C"
b0 U"
b1 )
b1 {
b1 >"
b1 G"
b100000000010000000000000001 *
b100000000010000000000000001 A"
b100000000010000000000000001 J"
b100000000010000000000000001 W"
b0 5
b0 L"
b0 P"
b0 `"
b0 6
b0 I"
b0 K"
b0 S"
1#
#20
0#
#25
b1 S
b1 `
b11111111111111111111111111111111 K
b11111111111111111111111111111111 w
b1 P
b1 h
b1 J
b1 z
b1 C
b1 I
b1 A
b1 H
b1 _
b1 b
b1 g
b1 j
b1 n
b1 r
b1 v
b1 y
b0 9"
1'
11
1D
b1 E
b1 7"
1#
#30
0#
#35
b1 3
b1 Z"
b1 <
b1 <"
bx ;
bx ="
b1 !
b1 %
b1 @
b1 ]
b1 M"
bx ?
bx Y"
b1 9"
0'
1#
#40
0#
#45
b1 ;
b1 ="
b0 9"
1'
b1 ?
b1 Y"
1#
#50
0#
0$
#55
b10 J
b10 z
b10 P
b10 h
b11111111111111111111111111111110 K
b11111111111111111111111111111110 w
b10 S
b10 `
b10 A
b10 H
b10 _
b10 b
b10 g
b10 j
b10 n
b10 r
b10 v
b10 y
b0 ;
b0 ="
b10 -
b10 T"
b10 +
b10 F"
b0 ?
b0 Y"
b10 /
b10 D"
b10 V"
b100000000100000000000000010 *
b100000000100000000000000010 A"
b100000000100000000000000010 J"
b100000000100000000000000010 W"
b1 6
b1 I"
b1 K"
b1 S"
b1 9"
0'
1#
#60
0#
#65
b1 ;
b1 ="
b10 3
b10 Z"
b10 <
b10 <"
b0 9"
1'
b1 ?
b1 Y"
b10 !
b10 %
b10 @
b10 ]
b10 M"
1#
#70
0#
#75
b10 ;
b10 ="
b1 5
b1 L"
b1 P"
b10 ?
b10 Y"
b1 9"
0'
1#
#80
0#
#85
b1 S
b1 `
b1 K
b1 w
b1 P
b1 h
b1 J
b1 z
b11111111111111111111111111111110 Q
b11111111111111111111111111111110 e
b1 N
b1 l
b1 M
b1 p
b1 L
b1 t
b0 A
b0 H
b0 _
b0 b
b0 g
b0 j
b0 n
b0 r
b0 v
b0 y
b0 ;
b0 ="
b11 -
b11 T"
b1 B
b1 G
b1 ^
b1 a
b1 d
b1 f
b1 i
b1 m
b1 q
b1 u
b1 x
b0 +
b0 F"
b0 ?
b0 Y"
b11 /
b11 D"
b11 V"
b1 F
b1 R"
b1 X"
b1 0
b1 C"
b1 U"
b10010 )
b10010 {
b10010 >"
b10010 G"
b1001000001000110000000000000000 *
b1001000001000110000000000000000 A"
b1001000001000110000000000000000 J"
b1001000001000110000000000000000 W"
b0 9"
1'
b10 6
b10 I"
b10 K"
b10 S"
1#
#90
0#
#95
b1 3
b1 Z"
b1 <
b1 <"
b10 ;
b10 ="
b1 !
b1 %
b1 @
b1 ]
b1 M"
b10 5
b10 L"
b10 P"
b10 ?
b10 Y"
b1 9"
0'
1#
#100
0#
#105
b100 -
b100 T"
b100 /
b100 D"
b100 V"
b11 0
b11 C"
b11 U"
b1110 )
b1110 {
b1110 >"
b1110 G"
b0 ;
b0 ="
b111000011001000000000000000000 *
b111000011001000000000000000000 A"
b111000011001000000000000000000 J"
b111000011001000000000000000000 W"
b0 ?
b0 Y"
b11 6
b11 I"
b11 K"
b11 S"
1#
#110
0#
#115
b1 ;
b1 ="
b1 ?
b1 Y"
b1 :"
1#
#120
0#
#125
b10001 =
b10001 ?"
b10001 O"
b10 :"
1:
1#
#130
0#
#135
b10001 3
b10001 Z"
b11 :"
17
0:
1#
#140
0#
#145
b1 3
b1 Z"
b10001 ;
b10001 ="
b0 9"
b0 :"
1'
01
07
b10001 ?
b10001 Y"
1#
#150
0#
#155
b11 5
b11 L"
b11 P"
b1 9"
0'
1#
#160
0#
#165
b100 J
b100 z
b101 P
b101 h
b1 R
b1 c
b11111111111111111111111111111100 K
b11111111111111111111111111111100 w
b110 S
b110 `
b0 L
b0 t
b0 M
b0 p
b10 N
b10 l
b101 A
b101 H
b101 _
b101 b
b101 g
b101 j
b101 n
b101 r
b101 v
b101 y
b10 ;
b10 ="
b10 -
b10 T"
b101 +
b101 F"
b10 ?
b10 Y"
b10 /
b10 D"
b10 V"
b1 0
b1 C"
b1 U"
b1111 )
b1111 {
b1111 >"
b1111 G"
b111100001000100000000000000101 *
b111100001000100000000000000101 A"
b111100001000100000000000000101 J"
b111100001000100000000000000101 W"
b1 :"
b100 6
b100 I"
b100 K"
b100 S"
1#
#170
0#
#175
b110 3
b110 Z"
b110 <
b110 <"
b110 !
b110 %
b110 @
b110 ]
b110 M"
b10 :"
1#
#180
0#
#185
b11 :"
18
1#
#190
0#
#195
b0 9"
b0 :"
1'
08
1#
#200
0#
#205
b1 9"
0'
b100 5
b100 L"
b100 P"
1#
#210
0#
#215
bx S
bx `
bx K
bx w
bx R
bx c
bx P
bx h
bx J
bx z
bx Q
bx e
bx N
bx l
bx M
bx p
bx L
bx t
bx A
bx H
bx _
bx b
bx g
bx j
bx n
bx r
bx v
bx y
bx ;
bx ="
bx -
bx T"
bx B
bx G
bx ^
bx a
bx d
bx f
bx i
bx m
bx q
bx u
bx x
bx +
bx F"
bx ?
bx Y"
bx /
bx D"
bx V"
bx F
bx R"
bx X"
bx 0
bx C"
bx U"
bx )
bx {
bx >"
bx G"
bx *
bx A"
bx J"
bx W"
b101 6
b101 I"
b101 K"
b101 S"
b1 :"
1#
#220
0#
#225
b0 C
b0 I
bx 3
bx Z"
bx <
bx <"
0D
b0 E
b0 7"
bx !
bx %
bx @
bx ]
bx M"
1#
