VA7/tb_ControlUnit.vcd
$date
	Wed Nov  8 02:44:30 2023
$end
$version
	Icarus Verilog
$end
$timescale
	1s
$end
$scope module testbench $end
$var wire 32 ! out [31:0] $end
$var parameter 32 " CLK_PERIOD $end
$var reg 1 # clk $end
$var reg 1 $ rst $end
$scope module KGPRISC $end
$var wire 1 % INT $end
$var wire 1 # clk $end
$var wire 32 & out [31:0] $end
$var wire 1 ' reset $end
$var wire 1 $ rst $end
$var wire 1 ( updatePC $end
$var wire 5 ) shamt [4:0] $end
$var wire 6 * opcode [5:0] $end
$var wire 32 + ins [31:0] $end
$var wire 32 , imm [31:0] $end
$var wire 6 - funct [5:0] $end
$var wire 5 . destReg [4:0] $end
$var wire 3 / StackOp [2:0] $end
$var wire 32 0 SPout [31:0] $end
$var wire 5 1 Rt [4:0] $end
$var wire 5 2 Rs [4:0] $end
$var wire 1 3 RegW $end
$var wire 1 4 RegDst $end
$var wire 32 5 Rdin [31:0] $end
$var wire 5 6 Rd [4:0] $end
$var wire 32 7 PC [31:0] $end
$var wire 32 8 NPC [31:0] $end
$var wire 1 9 MemtoReg $end
$var wire 1 : MemW $end
$var wire 32 ; MemSP [31:0] $end
$var wire 1 < MemR $end
$var wire 32 = MemIn [31:0] $end
$var wire 32 > MemAddr [31:0] $end
$var wire 32 ? LMD [31:0] $end
$var wire 3 @ BranchOp [2:0] $end
$var wire 32 A B [31:0] $end
$var wire 32 B ALUout [31:0] $end
$var wire 32 C ALUin2 [31:0] $end
$var wire 32 D ALUin1 [31:0] $end
$var wire 4 E ALUfunct [3:0] $end
$var wire 1 F ALUSrc $end
$var wire 4 G ALUOp [3:0] $end
$var wire 32 H A [31:0] $end
$scope module ALU $end
$var wire 32 I a [31:0] $end
$var wire 32 J b [31:0] $end
$var wire 1 # clk $end
$var wire 4 K funct [3:0] $end
$var wire 32 L xor_out [31:0] $end
$var wire 32 M sub_out [31:0] $end
$var wire 32 N srl_out [31:0] $end
$var wire 32 O sra_out [31:0] $end
$var wire 32 P sla_out [31:0] $end
$var wire 5 Q shamt [4:0] $end
$var wire 32 R or_out [31:0] $end
$var wire 32 S not_out [31:0] $end
$var wire 32 T and_out [31:0] $end
$var wire 32 U add_out [31:0] $end
$var parameter 32 V ADD $end
$var parameter 32 W AND $end
$var parameter 32 X NOT $end
$var parameter 32 Y OR $end
$var parameter 32 Z SLA $end
$var parameter 32 [ SRA $end
$var parameter 32 \ SRL $end
$var parameter 32 ] SUB $end
$var parameter 32 ^ XOR $end
$var reg 32 _ res [31:0] $end
$scope module add_gate $end
$var wire 32 ` a [31:0] $end
$var wire 32 a b [31:0] $end
$var reg 32 b out [31:0] $end
$upscope $end
$scope module and_gate $end
$var wire 32 c a [31:0] $end
$var wire 32 d b [31:0] $end
$var reg 32 e out [31:0] $end
$upscope $end
$scope module not_gate $end
$var wire 32 f a [31:0] $end
$var reg 32 g out [31:0] $end
$upscope $end
$scope module or_gate $end
$var wire 32 h a [31:0] $end
$var wire 32 i b [31:0] $end
$var reg 32 j out [31:0] $end
$upscope $end
$scope module sla_gate $end
$var wire 32 k a [31:0] $end
$var wire 32 l b [31:0] $end
$var wire 5 m shamt [4:0] $end
$var reg 32 n out [31:0] $end
$upscope $end
$scope module sra_gate $end
$var wire 32 o a [31:0] $end
$var wire 32 p b [31:0] $end
$var wire 5 q shamt [4:0] $end
$var reg 32 r out [31:0] $end
$upscope $end
$scope module srl_gate $end
$var wire 32 s a [31:0] $end
$var wire 32 t b [31:0] $end
$var wire 5 u shamt [4:0] $end
$var reg 32 v out [31:0] $end
$upscope $end
$scope module sub_gate $end
$var wire 32 w a [31:0] $end
$var wire 32 x b [31:0] $end
$var reg 32 y out [31:0] $end
$upscope $end
$scope module xor_gate $end
$var wire 32 z a [31:0] $end
$var wire 32 { b [31:0] $end
$var reg 32 | out [31:0] $end
$upscope $end
$upscope $end
$scope module CPU $end
$var wire 1 % INT $end
$var wire 1 # clk $end
$var wire 6 } opcode [5:0] $end
$var parameter 6 ~ ADDI $end
$var parameter 6 !" ANDI $end
$var parameter 6 "" BMI $end
$var parameter 6 #" BPL $end
$var parameter 6 $" BR $end
$var parameter 6 %" BZ $end
$var parameter 6 &" CALL $end
$var parameter 6 '" HALT $end
$var parameter 6 (" LD $end
$var parameter 6 )" LDSP $end
$var parameter 6 *" MOVE $end
$var parameter 6 +" NOP $end
$var parameter 6 ," NOTI $end
$var parameter 6 -" ORI $end
$var parameter 6 ." POP $end
$var parameter 6 /" PUSH $end
$var parameter 6 0" RET $end
$var parameter 6 1" R_TYPE $end
$var parameter 6 2" SLAI $end
$var parameter 6 3" SRAI $end
$var parameter 6 4" SRLI $end
$var parameter 6 5" ST $end
$var parameter 6 6" STSP $end
$var parameter 6 7" SUBI $end
$var parameter 6 8" XORI $end
$var reg 4 9" ALUOp [3:0] $end
$var reg 1 F ALUSrc $end
$var reg 3 :" BranchOp [2:0] $end
$var reg 3 ;" CS [2:0] $end
$var reg 5 <" IS [4:0] $end
$var reg 1 < MemR $end
$var reg 1 : MemW $end
$var reg 1 9 MemtoReg $end
$var reg 1 4 RegDst $end
$var reg 1 3 RegW $end
$var reg 3 =" StackOp [2:0] $end
$var reg 1 ( updatePC $end
$upscope $end
$scope module DM $end
$var wire 1 < MemR $end
$var wire 1 : MemW $end
$var wire 32 >" address [31:0] $end
$var wire 32 ?" writeData [31:0] $end
$var wire 6 @" opcode [5:0] $end
$var reg 32 A" readData [31:0] $end
$upscope $end
$scope module ID $end
$var wire 32 B" ins [31:0] $end
$var reg 5 C" Rd [4:0] $end
$var reg 5 D" Rs [4:0] $end
$var reg 5 E" Rt [4:0] $end
$var reg 6 F" funct [5:0] $end
$var reg 32 G" imm [31:0] $end
$var reg 6 H" opcode [5:0] $end
$var reg 5 I" shamt [4:0] $end
$upscope $end
$scope module IM $end
$var wire 32 J" addr [31:0] $end
$var reg 32 K" ins [31:0] $end
$upscope $end
$scope module PC0 $end
$var wire 1 # clk $end
$var wire 1 $ reset $end
$var wire 1 ( updatePC $end
$var wire 32 L" PCin [31:0] $end
$var reg 32 M" PCout [31:0] $end
$upscope $end
$scope module PCC $end
$var wire 32 N" ALUout [31:0] $end
$var wire 3 O" BranchOp [2:0] $end
$var wire 32 P" LMD [31:0] $end
$var wire 32 Q" PCin [31:0] $end
$var wire 3 R" StackOp [2:0] $end
$var wire 1 # clk $end
$var wire 1 $ rst $end
$var wire 32 S" regval [31:0] $end
$var reg 32 T" PCout [31:0] $end
$upscope $end
$scope module RB $end
$var wire 5 U" Rd [4:0] $end
$var wire 1 3 RegW $end
$var wire 5 V" Rs [4:0] $end
$var wire 5 W" Rt [4:0] $end
$var wire 1 # clk $end
$var wire 32 X" ins [31:0] $end
$var wire 32 Y" rData1 [31:0] $end
$var wire 32 Z" rData2 [31:0] $end
$var wire 1 ' reset $end
$var wire 32 [" wrData [31:0] $end
$upscope $end
$scope module SPC $end
$var wire 32 \" SPin [31:0] $end
$var wire 3 ]" StackOp [2:0] $end
$var wire 1 # clk $end
$var wire 1 $ rst $end
$var reg 32 ^" MemSP [31:0] $end
$var reg 32 _" SPout [31:0] $end
$upscope $end
$upscope $end
$upscope $end
$enddefinitions $end
$comment Show the parameter values. $end
$dumpall
b101 8"
b10 7"
b10001 6"
b1111 5"
b1000 4"
b1001 3"
b111 2"
b0 1"
b11000 0"
b10011 /"
b10100 ."
b100 -"
b110 ,"
b10111 +"
b10010 *"
b10000 )"
b1110 ("
b10110 '"
b10101 &"
b1101 %"
b1010 $"
b1100 #"
b1011 ""
b11 !"
b1 ~
b101 ^
b10 ]
b1001 \
b1000 [
b111 Z
b100 Y
b110 X
b11 W
b1 V
b1010 "
$end
#0
$dumpvars
bx _"
bx ^"
b0 ]"
bx \"
bx ["
bx Z"
bx Y"
bx X"
bx W"
bx V"
bx U"
bx T"
bx S"
b0 R"
bx Q"
bx P"
b0 O"
bx N"
bx M"
bx L"
bx K"
bx J"
bx I"
bx H"
bx G"
bx F"
bx E"
bx D"
bx C"
bx B"
bx A"
bx @"
bx ?"
bx >"
b0 ="
b0 <"
b0 ;"
b0 :"
b0 9"
bx }
bx |
bx {
bx z
bx y
bx x
bx w
bx v
bx u
bx t
bx s
bx r
bx q
bx p
bx o
bx n
bx m
bx l
bx k
bx j
bx i
bx h
bx g
bx f
bx e
bx d
bx c
bx b
bx a
bx `
bx _
bx U
bx T
bx S
bx R
bx Q
bx P
bx O
bx N
bx M
bx L
bx K
bx J
bx I
bx H
b0 G
0F
bx E
bx D
bx C
bx B
bx A
b0 @
bx ?
bx >
bx =
0<
bx ;
0:
09
bx 8
bx 7
bx 6
bx 5
04
03
bx 2
bx 1
bx 0
b0 /
bx .
bx -
bx ,
bx +
bx *
bx )
0(
z'
bx &
z%
x$
0#
bx !
$end
#5
b1 ;"
1#
#10
0#
1$
#15
b11111111111111111111111111111111 S
b11111111111111111111111111111111 g
b0 P
b0 n
b0 O
b0 r
b0 N
b0 v
b0 E
b0 K
b0 L
b0 |
b0 R
b0 j
b0 T
b0 e
b0 M
b0 y
b0 U
b0 b
b0 D
b0 I
b0 `
b0 c
b0 f
b0 h
b0 k
b0 o
b0 s
b0 w
b0 z
b0 C
b0 J
b0 a
b0 d
b0 i
b0 l
b0 p
b0 t
b0 x
b0 {
b0 =
b0 ?"
b1 .
b1 U"
b111 ,
b111 G"
b0 -
b0 F"
b0 )
b0 Q
b0 m
b0 q
b0 u
b0 I"
b0 6
b0 C"
b0 A
b0 Z"
b1 1
b1 E"
b1 W"
b0 H
b0 S"
b0 Y"
b0 \"
b0 2
b0 D"
b0 V"
b1 *
b1 }
b1 @"
b1 H"
b100000000010000000000000111 +
b100000000010000000000000111 B"
b100000000010000000000000111 K"
b100000000010000000000000111 X"
b0 7
b0 J"
b0 M"
b0 Q"
b0 0
b0 _"
b0 8
b0 L"
b0 T"
1#
#20
0#
#25
b111 U
b111 b
b11111111111111111111111111111001 M
b11111111111111111111111111111001 y
b111 R
b111 j
b111 L
b111 |
b1 E
b1 K
b111 C
b111 J
b111 a
b111 d
b111 i
b111 l
b111 p
b111 t
b111 x
b111 {
b1 <"
1F
b1 G
b1 9"
1#
#30
0#
#35
b111 5
b111 ["
b111 >
b111 >"
b111 !
b111 &
b111 B
b111 _
b111 N"
b10 <"
13
1#
#40
0#
#45
b111 =
b111 ?"
b0 ;"
b0 <"
1(
03
b111 A
b111 Z"
1#
#50
0#
0$
#55
b1 8
b1 L"
b1 T"
b1 ;"
0(
1#
#60
0#
#65
b1 <"
1#
#70
0#
#75
b10 <"
13
1#
#80
0#
#85
b0 ;"
b0 <"
1(
03
1#
#90
0#
#95
b11111111111111111111111111111000 S
b11111111111111111111111111111000 g
b11110 L
b11110 |
b11111 R
b11111 j
b1 T
b1 e
b11111111111111111111111111101110 M
b11111111111111111111111111101110 y
b100000 U
b100000 b
b1110 P
b1110 n
b11 O
b11 r
b11 N
b11 v
b111 D
b111 I
b111 `
b111 c
b111 f
b111 h
b111 k
b111 o
b111 s
b111 w
b111 z
b11001 C
b11001 J
b11001 a
b11001 d
b11001 i
b11001 l
b11001 p
b11001 t
b11001 x
b11001 {
b0 =
b0 ?"
b10 .
b10 U"
b11001 ,
b11001 G"
b0 A
b0 Z"
b10 1
b10 E"
b10 W"
b111 H
b111 S"
b111 Y"
b111 \"
b1 2
b1 D"
b1 V"
b10 *
b10 }
b10 @"
b10 H"
b1000001000100000000000011001 +
b1000001000100000000000011001 B"
b1000001000100000000000011001 K"
b1000001000100000000000011001 X"
b1 7
b1 J"
b1 M"
b1 Q"
b1 ;"
0(
1#
#100
0#
#105
b10 E
b10 K
b100000 5
b100000 ["
b100000 >
b100000 >"
b1 <"
b10 G
b10 9"
b10 8
b10 L"
b10 T"
b100000 !
b100000 &
b100000 B
b100000 _
b100000 N"
1#
#110
0#
#115
b11111111111111111111111111101110 5
b11111111111111111111111111101110 ["
b11111111111111111111111111101110 >
b11111111111111111111111111101110 >"
b11111111111111111111111111101110 !
b11111111111111111111111111101110 &
b11111111111111111111111111101110 B
b11111111111111111111111111101110 _
b11111111111111111111111111101110 N"
b10 <"
13
1#
#120
0#
#125
b11111111111111111111111111101110 =
b11111111111111111111111111101110 ?"
b0 ;"
b0 <"
1(
03
b11111111111111111111111111101110 A
b11111111111111111111111111101110 Z"
1#
#130
0#
#135
b11111111111111111111111111111111 S
b11111111111111111111111111111111 g
b1101 U
b1101 b
b11111111111111111111111111110011 M
b11111111111111111111111111110011 y
b0 T
b0 e
b1101 R
b1101 j
b1101 L
b1101 |
b0 N
b0 v
b0 O
b0 r
b0 P
b0 n
b0 D
b0 I
b0 `
b0 c
b0 f
b0 h
b0 k
b0 o
b0 s
b0 w
b0 z
b1101 C
b1101 J
b1101 a
b1101 d
b1101 i
b1101 l
b1101 p
b1101 t
b1101 x
b1101 {
b0 =
b0 ?"
b11 .
b11 U"
b1101 ,
b1101 G"
b0 A
b0 Z"
b11 1
b11 E"
b11 W"
b0 H
b0 S"
b0 Y"
b0 \"
b0 2
b0 D"
b0 V"
b1 *
b1 }
b1 @"
b1 H"
b100000000110000000000001101 +
b100000000110000000000001101 B"
b100000000110000000000001101 K"
b100000000110000000000001101 X"
b10 7
b10 J"
b10 M"
b10 Q"
b1 ;"
0(
1#
#140
0#
#145
b1 E
b1 K
b11111111111111111111111111110011 5
b11111111111111111111111111110011 ["
b11111111111111111111111111110011 >
b11111111111111111111111111110011 >"
b1 <"
b1 G
b1 9"
b11 8
b11 L"
b11 T"
b11111111111111111111111111110011 !
b11111111111111111111111111110011 &
b11111111111111111111111111110011 B
b11111111111111111111111111110011 _
b11111111111111111111111111110011 N"
1#
#150
0#
#155
b1101 5
b1101 ["
b1101 >
b1101 >"
b1101 !
b1101 &
b1101 B
b1101 _
b1101 N"
b10 <"
13
1#
#160
0#
#165
b1101 =
b1101 ?"
b0 ;"
b0 <"
1(
03
b1101 A
b1101 Z"
1#
#170
0#
#175
b1111111111 U
b1111111111 b
b1111111111 R
b1111111111 j
b1111111111 L
b1111111111 |
b10000 6
b10000 C"
b11111111111111111111110000000000 S
b11111111111111111111110000000000 g
b1111111111 M
b1111111111 y
b1111111111 P
b1111111111 n
b1111111111 O
b1111111111 r
b1111111111 N
b1111111111 v
b1111111111 D
b1111111111 I
b1111111111 `
b1111111111 c
b1111111111 f
b1111111111 h
b1111111111 k
b1111111111 o
b1111111111 s
b1111111111 w
b1111111111 z
b0 C
b0 J
b0 a
b0 d
b0 i
b0 l
b0 p
b0 t
b0 x
b0 {
b1101 =
b1101 ?"
b11 .
b11 U"
b0 ,
b0 G"
b1101 A
b1101 Z"
b11 1
b11 E"
b11 W"
b1111111111 H
b1111111111 S"
b1111111111 Y"
b1111111111 \"
b10000 2
b10000 D"
b10000 V"
b10011 *
b10011 }
b10011 @"
b10011 H"
b1001100011000000000000000000000 +
b1001100011000000000000000000000 B"
b1001100011000000000000000000000 K"
b1001100011000000000000000000000 X"
b11 7
b11 J"
b11 M"
b11 Q"
b1 ;"
0(
1#
#180
0#
#185
b0 5
b0 ["
b10000 .
b10000 U"
bx >
bx >"
b1 <"
b1 /
b1 ="
b1 R"
b1 ]"
14
b100 8
b100 L"
b100 T"
b1111111111 !
b1111111111 &
b1111111111 B
b1111111111 _
b1111111111 N"
1#
#190
0#
#195
b1111111110 5
b1111111110 ["
b1111111110 >
b1111111110 >"
b1111111110 ;
b1111111110 ^"
b1111111110 0
b1111111110 _"
b10 <"
13
1#
#200
0#
#205
b1111111110 L
b1111111110 |
b1111111110 R
b1111111110 j
b1111111110 M
b1111111110 y
b1111111110 U
b1111111110 b
b11111111111111111111110000000001 S
b11111111111111111111110000000001 g
b1111111110 P
b1111111110 n
b1111111110 O
b1111111110 r
b1111111110 N
b1111111110 v
b1111111110 D
b1111111110 I
b1111111110 `
b1111111110 c
b1111111110 f
b1111111110 h
b1111111110 k
b1111111110 o
b1111111110 s
b1111111110 w
b1111111110 z
b11 <"
1:
03
b1111111110 H
b1111111110 S"
b1111111110 Y"
b1111111110 \"
1#
#210
0#
#215
b1111111101 5
b1111111101 ["
b1111111101 >
b1111111101 >"
b1111111110 !
b1111111110 &
b1111111110 B
b1111111110 _
b1111111110 N"
b1111111101 ;
b1111111101 ^"
b1111111101 0
b1111111101 _"
b0 ;"
b0 <"
1(
1#
#220
0#
#225
b0 =
b0 ?"
b0 A
b0 Z"
b0 1
b0 E"
b0 W"
b11000 *
b11000 }
b11000 @"
b11000 H"
b1100000000000000000000000000000 +
b1100000000000000000000000000000 B"
b1100000000000000000000000000000 K"
b1100000000000000000000000000000 X"
b1 ;"
0(
b100 7
b100 J"
b100 M"
b100 Q"
1#
#230
0#
#235
b101 8
b101 L"
b101 T"
b1 <"
b100 /
b100 ="
b100 R"
b100 ]"
0:
1#
#240
0#
#245
b1101 ?
b1101 A"
b1101 P"
b1111111111 5
b1111111111 ["
b1111111110 >
b1111111110 >"
b10 <"
1<
bx 8
bx L"
bx T"
b1111111111 0
b1111111111 _"
b1111111110 ;
b1111111110 ^"
1#
#250
0#
#255
b1101 8
b1101 L"
b1101 T"
b11 <"
13
0<
1#
#260
0#
#265
b1111111111 U
b1111111111 b
b1111111111 M
b1111111111 y
b1111111111 R
b1111111111 j
b1111111111 L
b1111111111 |
b11111111111111111111110000000000 S
b11111111111111111111110000000000 g
b1111111111 N
b1111111111 v
b1111111111 O
b1111111111 r
b1111111111 P
b1111111111 n
b1111111111 D
b1111111111 I
b1111111111 `
b1111111111 c
b1111111111 f
b1111111111 h
b1111111111 k
b1111111111 o
b1111111111 s
b1111111111 w
b1111111111 z
b0 ;"
b0 <"
1(
03
b1111111111 H
b1111111111 S"
b1111111111 Y"
b1111111111 \"
1#
#270
0#
#275
bx S
bx g
bx L
bx |
bx R
bx j
bx T
bx e
bx M
bx y
bx U
bx b
bx P
bx n
bx O
bx r
bx N
bx v
bx D
bx I
bx `
bx c
bx f
bx h
bx k
bx o
bx s
bx w
bx z
bx C
bx J
bx a
bx d
bx i
bx l
bx p
bx t
bx x
bx {
b0 .
b0 U"
bx =
bx ?"
bx ,
bx G"
b0 6
b0 C"
bx A
bx Z"
bx 1
bx E"
bx W"
bx H
bx S"
bx Y"
bx \"
bx 2
bx D"
bx V"
bx *
bx }
bx @"
bx H"
b10000000000 5
b10000000000 ["
bx +
bx B"
bx K"
bx X"
b1111111111 >
b1111111111 >"
b1111111111 !
b1111111111 &
b1111111111 B
b1111111111 _
b1111111111 N"
b1101 7
b1101 J"
b1101 M"
b1101 Q"
b10000000000 0
b10000000000 _"
b1111111111 ;
b1111111111 ^"
b1 ;"
0(
1#
#280
0#
#285
b0 E
b0 K
bx 5
bx ["
bx .
bx U"
bx >
bx >"
b0 /
b0 ="
b0 R"
b0 ]"
04
0F
b0 G
b0 9"
bx 0
bx _"
bx ;
bx ^"
bx !
bx &
bx B
bx _
bx N"
1#
#290
0#
#295
b1110 8
b1110 L"
b1110 T"
1#
