VA7/tb_ControlUnit.vcd
$date
	Sat Nov 11 13:30:21 2023
$end
$version
	Icarus Verilog
$end
$timescale
	1s
$end
$scope module testbench $end
$var wire 32 ! out [31:0] $end
$var parameter 32 " CLK_PERIOD $end
$var reg 1 # clk $end
$var reg 1 $ rst $end
$scope module KGPRISC $end
$var wire 1 % INT $end
$var wire 1 # clk $end
$var wire 32 & out [31:0] $end
$var wire 1 ' reset $end
$var wire 1 $ rst $end
$var wire 1 ( updatePC $end
$var wire 5 ) shamt [4:0] $end
$var wire 6 * opcode [5:0] $end
$var wire 32 + ins [31:0] $end
$var wire 32 , imm [31:0] $end
$var wire 6 - funct [5:0] $end
$var wire 5 . destReg [4:0] $end
$var wire 3 / StackOp [2:0] $end
$var wire 32 0 SPout [31:0] $end
$var wire 5 1 Rt [4:0] $end
$var wire 5 2 Rs [4:0] $end
$var wire 1 3 RegW $end
$var wire 1 4 RegDst $end
$var wire 32 5 Rdin [31:0] $end
$var wire 5 6 Rd [4:0] $end
$var wire 32 7 PC [31:0] $end
$var wire 32 8 NPC [31:0] $end
$var wire 1 9 MemtoReg $end
$var wire 1 : MemW $end
$var wire 32 ; MemSP [31:0] $end
$var wire 1 < MemR $end
$var wire 32 = MemIn [31:0] $end
$var wire 32 > MemAddr [31:0] $end
$var wire 32 ? LMD [31:0] $end
$var wire 3 @ BranchOp [2:0] $end
$var wire 32 A B [31:0] $end
$var wire 32 B ALUout [31:0] $end
$var wire 32 C ALUin2 [31:0] $end
$var wire 32 D ALUin1 [31:0] $end
$var wire 4 E ALUfunct [3:0] $end
$var wire 1 F ALUSrc $end
$var wire 4 G ALUOp [3:0] $end
$var wire 32 H A [31:0] $end
$scope module ALU $end
$var wire 32 I a [31:0] $end
$var wire 32 J b [31:0] $end
$var wire 1 # clk $end
$var wire 4 K funct [3:0] $end
$var wire 32 L xor_out [31:0] $end
$var wire 32 M sub_out [31:0] $end
$var wire 32 N srl_out [31:0] $end
$var wire 32 O sra_out [31:0] $end
$var wire 32 P sla_out [31:0] $end
$var wire 5 Q shamt [4:0] $end
$var wire 32 R or_out [31:0] $end
$var wire 32 S not_out [31:0] $end
$var wire 32 T and_out [31:0] $end
$var wire 32 U add_out [31:0] $end
$var parameter 32 V ADD $end
$var parameter 32 W AND $end
$var parameter 32 X NOT $end
$var parameter 32 Y OR $end
$var parameter 32 Z SLA $end
$var parameter 32 [ SRA $end
$var parameter 32 \ SRL $end
$var parameter 32 ] SUB $end
$var parameter 32 ^ XOR $end
$var reg 32 _ res [31:0] $end
$scope module add_gate $end
$var wire 32 ` a [31:0] $end
$var wire 32 a b [31:0] $end
$var reg 32 b out [31:0] $end
$upscope $end
$scope module and_gate $end
$var wire 32 c a [31:0] $end
$var wire 32 d b [31:0] $end
$var reg 32 e out [31:0] $end
$upscope $end
$scope module not_gate $end
$var wire 32 f a [31:0] $end
$var reg 32 g out [31:0] $end
$upscope $end
$scope module or_gate $end
$var wire 32 h a [31:0] $end
$var wire 32 i b [31:0] $end
$var reg 32 j out [31:0] $end
$upscope $end
$scope module sla_gate $end
$var wire 32 k a [31:0] $end
$var wire 32 l b [31:0] $end
$var wire 5 m shamt [4:0] $end
$var reg 32 n out [31:0] $end
$upscope $end
$scope module sra_gate $end
$var wire 32 o a [31:0] $end
$var wire 32 p b [31:0] $end
$var wire 5 q shamt [4:0] $end
$var reg 32 r out [31:0] $end
$upscope $end
$scope module srl_gate $end
$var wire 32 s a [31:0] $end
$var wire 32 t b [31:0] $end
$var wire 5 u shamt [4:0] $end
$var reg 32 v out [31:0] $end
$upscope $end
$scope module sub_gate $end
$var wire 32 w a [31:0] $end
$var wire 32 x b [31:0] $end
$var reg 32 y out [31:0] $end
$upscope $end
$scope module xor_gate $end
$var wire 32 z a [31:0] $end
$var wire 32 { b [31:0] $end
$var reg 32 | out [31:0] $end
$upscope $end
$upscope $end
$scope module CPU $end
$var wire 1 % INT $end
$var wire 1 # clk $end
$var wire 6 } opcode [5:0] $end
$var parameter 6 ~ ADDI $end
$var parameter 6 !" ANDI $end
$var parameter 6 "" BMI $end
$var parameter 6 #" BPL $end
$var parameter 6 $" BR $end
$var parameter 6 %" BZ $end
$var parameter 6 &" CALL $end
$var parameter 6 '" HALT $end
$var parameter 6 (" LD $end
$var parameter 6 )" LDSP $end
$var parameter 6 *" MOVE $end
$var parameter 6 +" NOP $end
$var parameter 6 ," NOTI $end
$var parameter 6 -" ORI $end
$var parameter 6 ." POP $end
$var parameter 6 /" PUSH $end
$var parameter 6 0" RET $end
$var parameter 6 1" R_TYPE $end
$var parameter 6 2" SLAI $end
$var parameter 6 3" SRAI $end
$var parameter 6 4" SRLI $end
$var parameter 6 5" ST $end
$var parameter 6 6" STSP $end
$var parameter 6 7" SUBI $end
$var parameter 6 8" XORI $end
$var reg 4 9" ALUOp [3:0] $end
$var reg 1 F ALUSrc $end
$var reg 3 :" BranchOp [2:0] $end
$var reg 3 ;" CS [2:0] $end
$var reg 5 <" IS [4:0] $end
$var reg 1 < MemR $end
$var reg 1 : MemW $end
$var reg 1 9 MemtoReg $end
$var reg 1 4 RegDst $end
$var reg 1 3 RegW $end
$var reg 3 =" StackOp [2:0] $end
$var reg 1 ( updatePC $end
$upscope $end
$scope module DM $end
$var wire 1 < MemR $end
$var wire 1 : MemW $end
$var wire 32 >" address [31:0] $end
$var wire 32 ?" writeData [31:0] $end
$var wire 6 @" opcode [5:0] $end
$var reg 32 A" readData [31:0] $end
$upscope $end
$scope module ID $end
$var wire 32 B" ins [31:0] $end
$var parameter 6 C" ADDI $end
$var parameter 6 D" ANDI $end
$var parameter 6 E" BMI $end
$var parameter 6 F" BPL $end
$var parameter 6 G" BR $end
$var parameter 6 H" BZ $end
$var parameter 6 I" CALL $end
$var parameter 6 J" HALT $end
$var parameter 6 K" LD $end
$var parameter 6 L" LDSP $end
$var parameter 6 M" MOVE $end
$var parameter 6 N" NOP $end
$var parameter 6 O" NOTI $end
$var parameter 6 P" ORI $end
$var parameter 6 Q" POP $end
$var parameter 6 R" PUSH $end
$var parameter 6 S" RET $end
$var parameter 6 T" R_TYPE $end
$var parameter 6 U" SLAI $end
$var parameter 6 V" SRAI $end
$var parameter 6 W" SRLI $end
$var parameter 6 X" ST $end
$var parameter 6 Y" STSP $end
$var parameter 6 Z" SUBI $end
$var parameter 6 [" XORI $end
$var reg 5 \" Rd [4:0] $end
$var reg 5 ]" Rs [4:0] $end
$var reg 5 ^" Rt [4:0] $end
$var reg 6 _" funct [5:0] $end
$var reg 32 `" imm [31:0] $end
$var reg 6 a" opcode [5:0] $end
$var reg 5 b" shamt [4:0] $end
$upscope $end
$scope module IM $end
$var wire 32 c" addr [31:0] $end
$var reg 32 d" ins [31:0] $end
$upscope $end
$scope module PC0 $end
$var wire 1 # clk $end
$var wire 1 $ reset $end
$var wire 1 ( updatePC $end
$var wire 32 e" PCin [31:0] $end
$var reg 32 f" PCout [31:0] $end
$upscope $end
$scope module PCC $end
$var wire 32 g" ALUout [31:0] $end
$var wire 3 h" BranchOp [2:0] $end
$var wire 32 i" LMD [31:0] $end
$var wire 32 j" PCin [31:0] $end
$var wire 3 k" StackOp [2:0] $end
$var wire 1 # clk $end
$var wire 1 $ rst $end
$var wire 32 l" regval [31:0] $end
$var reg 32 m" PCout [31:0] $end
$upscope $end
$scope module RB $end
$var wire 5 n" Rd [4:0] $end
$var wire 1 3 RegW $end
$var wire 5 o" Rs [4:0] $end
$var wire 5 p" Rt [4:0] $end
$var wire 1 # clk $end
$var wire 32 q" ins [31:0] $end
$var wire 32 r" rData1 [31:0] $end
$var wire 32 s" rData2 [31:0] $end
$var wire 1 ' reset $end
$var wire 32 t" wrData [31:0] $end
$upscope $end
$scope module SPC $end
$var wire 32 u" SPin [31:0] $end
$var wire 3 v" StackOp [2:0] $end
$var wire 1 # clk $end
$var wire 1 $ rst $end
$var reg 32 w" MemSP [31:0] $end
$var reg 32 x" SPout [31:0] $end
$upscope $end
$upscope $end
$upscope $end
$enddefinitions $end
$comment Show the parameter values. $end
$dumpall
b101 ["
b10 Z"
b10001 Y"
b1111 X"
b1000 W"
b1001 V"
b111 U"
b0 T"
b11000 S"
b10011 R"
b10100 Q"
b100 P"
b110 O"
b10111 N"
b10010 M"
b10000 L"
b1110 K"
b10110 J"
b10101 I"
b1101 H"
b1010 G"
b1100 F"
b1011 E"
b11 D"
b1 C"
b101 8"
b10 7"
b10001 6"
b1111 5"
b1000 4"
b1001 3"
b111 2"
b0 1"
b11000 0"
b10011 /"
b10100 ."
b100 -"
b110 ,"
b10111 +"
b10010 *"
b10000 )"
b1110 ("
b10110 '"
b10101 &"
b1101 %"
b1010 $"
b1100 #"
b1011 ""
b11 !"
b1 ~
b101 ^
b10 ]
b1001 \
b1000 [
b111 Z
b100 Y
b110 X
b11 W
b1 V
b1010 "
$end
#0
$dumpvars
b1111111111 x"
bx w"
b0 v"
b0 u"
bx t"
b0 s"
b0 r"
b100000000010000000000000111 q"
b1 p"
b0 o"
b1 n"
b0 m"
b0 l"
b0 k"
b0 j"
bx i"
b0 h"
bx g"
b0 f"
b0 e"
b100000000010000000000000111 d"
b0 c"
b0 b"
b1 a"
b111 `"
b0 _"
b1 ^"
b0 ]"
b0 \"
b100000000010000000000000111 B"
bx A"
b1 @"
b0 ?"
bx >"
b0 ="
b0 <"
b0 ;"
b0 :"
b0 9"
b1 }
b0 |
b0 {
b0 z
b0 y
b0 x
b0 w
b0 v
b0 u
b0 t
b0 s
b0 r
b0 q
b0 p
b0 o
b0 n
b0 m
b0 l
b0 k
b0 j
b0 i
b0 h
b11111111111111111111111111111111 g
b0 f
b0 e
b0 d
b0 c
b0 b
b0 a
b0 `
bx _
b0 U
b0 T
b11111111111111111111111111111111 S
b0 R
b0 Q
b0 P
b0 O
b0 N
b0 M
b0 L
b0 K
b0 J
b0 I
b0 H
b0 G
0F
b0 E
b0 D
b0 C
bx B
b0 A
b0 @
bx ?
bx >
b0 =
0<
bx ;
0:
09
b0 8
b0 7
b0 6
bx 5
04
03
b0 2
b1 1
b1111111111 0
b0 /
b1 .
b0 -
b111 ,
b100000000010000000000000111 +
b1 *
b0 )
0(
z'
bx &
z%
x$
0#
bx !
$end
#5
b1 ;"
b1 8
b1 e"
b1 m"
1#
#10
0#
#15
b111 U
b111 b
b11111111111111111111111111111001 M
b11111111111111111111111111111001 y
b111 R
b111 j
b111 L
b111 |
b11111111111111111111111111111000 S
b11111111111111111111111111111000 g
b1 E
b1 K
b111 C
b111 J
b111 a
b111 d
b111 f
b111 i
b111 l
b111 p
b111 t
b111 x
b111 {
b1 <"
1F
b1 G
b1 9"
1#
#20
0#
#25
b111 5
b111 t"
b111 >
b111 >"
b10 <"
13
b111 !
b111 &
b111 B
b111 _
b111 g"
1#
#30
0#
#35
b111 =
b111 ?"
b111 A
b111 s"
b0 ;"
b0 <"
1(
03
1#
#40
0#
#45
b11110 L
b11110 |
b11111 R
b11111 j
b1 T
b1 e
b11111111111111111111111111101110 M
b11111111111111111111111111101110 y
b100000 U
b100000 b
b11111111111111111111111111100110 S
b11111111111111111111111111100110 g
b1110 P
b1110 n
b11 O
b11 r
b11 N
b11 v
b111 D
b111 I
b111 `
b111 c
b111 h
b111 k
b111 o
b111 s
b111 w
b111 z
b11001 C
b11001 J
b11001 a
b11001 d
b11001 f
b11001 i
b11001 l
b11001 p
b11001 t
b11001 x
b11001 {
b0 =
b0 ?"
b10 .
b10 n"
b11001 ,
b11001 `"
b0 A
b0 s"
b10 1
b10 ^"
b10 p"
b111 H
b111 l"
b111 r"
b111 u"
b1 2
b1 ]"
b1 o"
b10 *
b10 }
b10 @"
b10 a"
b1000001000100000000000011001 +
b1000001000100000000000011001 B"
b1000001000100000000000011001 d"
b1000001000100000000000011001 q"
b1 ;"
0(
b1 7
b1 c"
b1 f"
b1 j"
1#
#50
0#
#55
b100000 5
b100000 t"
b10 E
b10 K
b100000 >
b100000 >"
b100000 !
b100000 &
b100000 B
b100000 _
b100000 g"
b10 8
b10 e"
b10 m"
b1 <"
b10 G
b10 9"
1#
#60
0#
#65
b11111111111111111111111111101110 5
b11111111111111111111111111101110 t"
b11111111111111111111111111101110 >
b11111111111111111111111111101110 >"
b10 <"
13
b11111111111111111111111111101110 !
b11111111111111111111111111101110 &
b11111111111111111111111111101110 B
b11111111111111111111111111101110 _
b11111111111111111111111111101110 g"
1#
#70
0#
#75
b11111111111111111111111111101110 =
b11111111111111111111111111101110 ?"
b11111111111111111111111111101110 A
b11111111111111111111111111101110 s"
b0 ;"
b0 <"
1(
03
1#
#80
0#
#85
b1101 U
b1101 b
b11111111111111111111111111110011 M
b11111111111111111111111111110011 y
b0 T
b0 e
b1101 R
b1101 j
b1101 L
b1101 |
b11111111111111111111111111110010 S
b11111111111111111111111111110010 g
b0 N
b0 v
b0 O
b0 r
b0 P
b0 n
b0 D
b0 I
b0 `
b0 c
b0 h
b0 k
b0 o
b0 s
b0 w
b0 z
b1101 C
b1101 J
b1101 a
b1101 d
b1101 f
b1101 i
b1101 l
b1101 p
b1101 t
b1101 x
b1101 {
b0 =
b0 ?"
b11 .
b11 n"
b1101 ,
b1101 `"
b0 A
b0 s"
b11 1
b11 ^"
b11 p"
b0 H
b0 l"
b0 r"
b0 u"
b0 2
b0 ]"
b0 o"
b1 *
b1 }
b1 @"
b1 a"
b100000000110000000000001101 +
b100000000110000000000001101 B"
b100000000110000000000001101 d"
b100000000110000000000001101 q"
b1 ;"
0(
b10 7
b10 c"
b10 f"
b10 j"
1#
#90
0#
#95
b11111111111111111111111111110011 5
b11111111111111111111111111110011 t"
b1 E
b1 K
b11111111111111111111111111110011 >
b11111111111111111111111111110011 >"
b11111111111111111111111111110011 !
b11111111111111111111111111110011 &
b11111111111111111111111111110011 B
b11111111111111111111111111110011 _
b11111111111111111111111111110011 g"
b11 8
b11 e"
b11 m"
b1 <"
b1 G
b1 9"
1#
#100
0#
#105
b1101 5
b1101 t"
b1101 >
b1101 >"
b10 <"
13
b1101 !
b1101 &
b1101 B
b1101 _
b1101 g"
1#
#110
0#
#115
b1101 =
b1101 ?"
b1101 A
b1101 s"
b0 ;"
b0 <"
1(
03
1#
#120
0#
#125
b10 )
b10 Q
b10 m
b10 q
b10 u
b10 b"
b101 L
b101 |
b111 R
b111 j
b10 T
b10 e
b101 M
b101 y
b1001 U
b1001 b
b11111111111111111111111111111101 S
b11111111111111111111111111111101 g
b11100 P
b11100 n
b1 O
b1 r
b1 N
b1 v
b111 D
b111 I
b111 `
b111 c
b111 h
b111 k
b111 o
b111 s
b111 w
b111 z
b10 C
b10 J
b10 a
b10 d
b10 f
b10 i
b10 l
b10 p
b10 t
b10 x
b10 {
b111 =
b111 ?"
b1 .
b1 n"
b10 ,
b10 `"
b111 A
b111 s"
b1 1
b1 ^"
b1 p"
b111 H
b111 l"
b111 r"
b111 u"
b1 2
b1 ]"
b1 o"
b111 *
b111 }
b111 @"
b111 a"
b11100001000010000000000000010 +
b11100001000010000000000000010 B"
b11100001000010000000000000010 d"
b11100001000010000000000000010 q"
b1 ;"
0(
b11 7
b11 c"
b11 f"
b11 j"
1#
#130
0#
#135
b1001 5
b1001 t"
b111 E
b111 K
b1001 >
b1001 >"
b1001 !
b1001 &
b1001 B
b1001 _
b1001 g"
b100 8
b100 e"
b100 m"
b1 <"
b111 G
b111 9"
1#
#140
0#
#145
b11100 5
b11100 t"
b11100 >
b11100 >"
b10 <"
13
b11100 !
b11100 &
b11100 B
b11100 _
b11100 g"
1#
#150
0#
#155
b11110 U
b11110 b
b11010 M
b11010 y
b0 T
b0 e
b11110 R
b11110 j
b11110 L
b11110 |
b1110000 P
b1110000 n
b111 O
b111 r
b111 N
b111 v
b11100 D
b11100 I
b11100 `
b11100 c
b11100 h
b11100 k
b11100 o
b11100 s
b11100 w
b11100 z
b11100 =
b11100 ?"
b11100 H
b11100 l"
b11100 r"
b11100 u"
b11100 A
b11100 s"
b0 ;"
b0 <"
1(
03
1#
#160
0#
#165
b110 -
b110 _"
b1 6
b1 \"
b0 L
b0 |
b0 R
b0 j
b0 M
b0 y
b0 U
b0 b
b11111111111111111111111111111111 S
b11111111111111111111111111111111 g
b0 D
b0 I
b0 `
b0 c
b0 h
b0 k
b0 o
b0 s
b0 w
b0 z
b0 C
b0 J
b0 a
b0 d
b0 f
b0 i
b0 l
b0 p
b0 t
b0 x
b0 {
b0 N
b0 v
b0 O
b0 r
b0 P
b0 n
b11111111111111111111111111101110 =
b11111111111111111111111111101110 ?"
b10 .
b10 n"
b0 ,
b0 `"
b0 )
b0 Q
b0 m
b0 q
b0 u
b0 b"
b11111111111111111111111111101110 A
b11111111111111111111111111101110 s"
b10 1
b10 ^"
b10 p"
b0 H
b0 l"
b0 r"
b0 u"
b0 2
b0 ]"
b0 o"
b0 *
b0 }
b0 @"
b0 a"
b1110000 5
b1110000 t"
b100000100000000110 +
b100000100000000110 B"
b100000100000000110 d"
b100000100000000110 q"
b1110000 >
b1110000 >"
b1 ;"
0(
b100 7
b100 c"
b100 f"
b100 j"
b1110000 !
b1110000 &
b1110000 B
b1110000 _
b1110000 g"
1#
#170
0#
#175
b0 5
b0 t"
b11111111111111111111111111101110 L
b11111111111111111111111111101110 |
b11111111111111111111111111101110 R
b11111111111111111111111111101110 j
b10010 M
b10010 y
b11111111111111111111111111101110 U
b11111111111111111111111111101110 b
b10001 S
b10001 g
b110 E
b110 K
b0 >
b0 >"
b1 .
b1 n"
b11111111111111111111111111101110 C
b11111111111111111111111111101110 J
b11111111111111111111111111101110 a
b11111111111111111111111111101110 d
b11111111111111111111111111101110 f
b11111111111111111111111111101110 i
b11111111111111111111111111101110 l
b11111111111111111111111111101110 p
b11111111111111111111111111101110 t
b11111111111111111111111111101110 x
b11111111111111111111111111101110 {
b0 !
b0 &
b0 B
b0 _
b0 g"
b101 8
b101 e"
b101 m"
b1 <"
14
0F
b0 G
b0 9"
1#
#180
0#
#185
b10001 5
b10001 t"
b10001 >
b10001 >"
b10 <"
13
b10001 !
b10001 &
b10001 B
b10001 _
b10001 g"
1#
#190
0#
#195
b0 ;"
b0 <"
1(
03
1#
#200
0#
#205
b1101 T
b1101 e
b0 E
b0 K
b10000001100 U
b10000001100 b
b1111110010 M
b1111110010 y
b1111111111 R
b1111111111 j
b1111110010 L
b1111110010 |
b11111111111111111111111111110010 S
b11111111111111111111111111110010 g
b11111111110 P
b11111111110 n
b111111111 O
b111111111 r
b111111111 N
b111111111 v
b1111111111 D
b1111111111 I
b1111111111 `
b1111111111 c
b1111111111 h
b1111111111 k
b1111111111 o
b1111111111 s
b1111111111 w
b1111111111 z
b10000 .
b10000 n"
b1101 C
b1101 J
b1101 a
b1101 d
b1101 f
b1101 i
b1101 l
b1101 p
b1101 t
b1101 x
b1101 {
b1101 =
b1101 ?"
b0 -
b0 _"
b10000 6
b10000 \"
b1101 A
b1101 s"
b11 1
b11 ^"
b11 p"
b1111111111 H
b1111111111 l"
b1111111111 r"
b1111111111 u"
b10000 2
b10000 ]"
b10000 o"
b10011 *
b10011 }
b10011 @"
b10011 a"
b1001100011000000000000000000000 +
b1001100011000000000000000000000 B"
b1001100011000000000000000000000 d"
b1001100011000000000000000000000 q"
b1 ;"
0(
b101 7
b101 c"
b101 f"
b101 j"
1#
#210
0#
#215
b1111111111 5
b1111111111 t"
b1111111111 U
b1111111111 b
b1111111111 M
b1111111111 y
b0 T
b0 e
b1111111111 L
b1111111111 |
b11111111111111111111111111111111 S
b11111111111111111111111111111111 g
b1111111111 P
b1111111111 n
b1111111111 O
b1111111111 r
b1111111111 N
b1111111111 v
b1 E
b1 K
bx >
bx >"
b0 C
b0 J
b0 a
b0 d
b0 f
b0 i
b0 l
b0 p
b0 t
b0 x
b0 {
b110 8
b110 e"
b110 m"
b1 <"
b1 /
b1 ="
b1 k"
b1 v"
1F
b1 G
b1 9"
1#
#220
0#
#225
b1111111110 5
b1111111110 t"
b1111111110 >
b1111111110 >"
b10 <"
13
b1111111110 ;
b1111111110 w"
b1111111110 0
b1111111110 x"
b1111111111 !
b1111111111 &
b1111111111 B
b1111111111 _
b1111111111 g"
1#
#230
0#
#235
b1111111110 L
b1111111110 |
b1111111110 R
b1111111110 j
b1111111110 M
b1111111110 y
b1111111110 U
b1111111110 b
b1111111110 N
b1111111110 v
b1111111110 O
b1111111110 r
b1111111110 P
b1111111110 n
b1111111110 D
b1111111110 I
b1111111110 `
b1111111110 c
b1111111110 h
b1111111110 k
b1111111110 o
b1111111110 s
b1111111110 w
b1111111110 z
b1111111110 H
b1111111110 l"
b1111111110 r"
b1111111110 u"
b11 <"
1:
03
1#
#240
0#
#245
b1111111101 5
b1111111101 t"
b1111111101 >
b1111111101 >"
b0 ;"
b0 <"
1(
b1111111101 ;
b1111111101 w"
b1111111101 0
b1111111101 x"
b1111111110 !
b1111111110 &
b1111111110 B
b1111111110 _
b1111111110 g"
1#
#250
0#
#255
b0 =
b0 ?"
b0 A
b0 s"
b100 1
b100 ^"
b100 p"
b10100 *
b10100 }
b10100 @"
b10100 a"
b1010000100000000000000000000000 +
b1010000100000000000000000000000 B"
b1010000100000000000000000000000 d"
b1010000100000000000000000000000 q"
b110 7
b110 c"
b110 f"
b110 j"
b1 ;"
0(
1#
#260
0#
#265
bx 5
bx t"
b100 .
b100 n"
b1 <"
b10 /
b10 ="
b10 k"
b10 v"
19
04
0:
b111 8
b111 e"
b111 m"
1#
#270
0#
#275
b1101 5
b1101 t"
b1101 ?
b1101 A"
b1101 i"
b1111111110 >
b1111111110 >"
b1111111111 0
b1111111111 x"
b1111111110 ;
b1111111110 w"
b10 <"
1<
1#
#280
0#
#285
b11 <"
13
0<
1#
#290
0#
#295
b1101 =
b1101 ?"
b1111111111 5
b1111111111 t"
b10000 .
b10000 n"
b1101 A
b1101 s"
b100 <"
09
14
03
1#
#300
0#
#305
b101 <"
13
1#
#310
0#
#315
b1111111111 U
b1111111111 b
b1111111111 M
b1111111111 y
b1111111111 R
b1111111111 j
b1111111111 L
b1111111111 |
b1111111111 P
b1111111111 n
b1111111111 O
b1111111111 r
b1111111111 N
b1111111111 v
b1111111111 D
b1111111111 I
b1111111111 `
b1111111111 c
b1111111111 h
b1111111111 k
b1111111111 o
b1111111111 s
b1111111111 w
b1111111111 z
b1111111111 H
b1111111111 l"
b1111111111 r"
b1111111111 u"
b0 ;"
b0 <"
1(
03
1#
#320
0#
#325
bx L
bx |
bx R
bx j
bx T
bx e
bx M
bx y
bx U
bx b
bx S
bx g
bx N
bx v
bx O
bx r
bx P
bx n
bx D
bx I
bx `
bx c
bx h
bx k
bx o
bx s
bx w
bx z
bx C
bx J
bx a
bx d
bx f
bx i
bx l
bx p
bx t
bx x
bx {
b0 .
b0 n"
bx ,
bx `"
b0 6
b0 \"
bx H
bx l"
bx r"
bx u"
bx 2
bx ]"
bx o"
bx =
bx ?"
bx A
bx s"
bx 1
bx ^"
bx p"
bx *
bx }
bx @"
bx a"
b10000000000 5
b10000000000 t"
b1111111111 >
b1111111111 >"
bx +
bx B"
bx d"
bx q"
b1 ;"
0(
b10000000000 0
b10000000000 x"
b1111111111 ;
b1111111111 w"
b111 7
b111 c"
b111 f"
b111 j"
b1111111111 !
b1111111111 &
b1111111111 B
b1111111111 _
b1111111111 g"
1#
#330
0#
#335
bx 5
bx t"
b0 E
b0 K
bx >
bx >"
bx .
bx n"
bx !
bx &
bx B
bx _
bx g"
bx 0
bx x"
bx ;
bx w"
b1000 8
b1000 e"
b1000 m"
b0 /
b0 ="
b0 k"
b0 v"
04
0F
b0 G
b0 9"
1#
